bank,Deposits from Banks,Total Assets,Loans and Advance to Banks
Sberbank of Russia OAO,2124100000,18210300000,357700000
VTB Bank (public joint-stock company)-JSC VTB Bank ,1036100000,8768500000,960500000
Gazprombank Open Joint-Stock Company,430222000,3646980000,392338000
"State Corporation ""Bank for Development and Foreign Economic Affairs-Vnesheconombank",1667501000,3313958000,547693000
OTKRITIE Holding,310652000,1623911000,147474000
"Public Joint-Stock Company ""Bank Otkritie Financial Corporation""",263997000,1379051000,131385000
Bank VTB24 CJSC,64131000,2048561000,408439000
Russian Agricultural Bank OJSC-Rosselkhozbank,149694000,1670764000,43569000
Alfa-Bank OJSC,223322600,1599839400,172358500
Moscow Interbank Currency Exchange,44706800,466464600,72108500
National Clearing Centre CJSC JSCB,44706800,360473500,65170400
Joint Stock Commercial Bank - Bank of Moscow,448975700,1628657700,450163600
UniCredit Bank AO,140471900,888691400,243588900
TransCreditBank Group OAP-TransCreditBank,25886800,390874600,65083800
Promsvyazbank Public Joint-Stock Company,67527000,739097000,23339000
Credit Bank of Moscow,38294500,454202100,53498500
Bank Rossiya OAO,1900,211517800,41497400
Financial Corporation UralSib,145316000,495040000,13054000
Public joint-stock company ROSBANK,181209000,864141000,52077000
AO Raifeisenbank,65999700,711372100,27712800
B&N Bank Joint Stock Company,3811900,217396400,33790600
IFD Kapital Group (Combined),33317373,291662160,24990967
AO Citibank,26408235,256447885,61130568
MDM Bank,42136923,208284960,27806515
Bank VTB North-West OJSC,54672100,225832700,5016300
OJSC VEB-Leasing,160269400,334183700,14291900
Bank Saint-Petersburg PJSC,70542900,409422300,23471200
Bank of Khanty-Mansiysk,66930200,360614100,93846700
"SMP Bank, Limited Liability Company-Commercial bank Severniy morskoy puts",23016400,168708200,6787400
AK Bars Bank,24466349,365700070,19519811
Sovkombank LLC,24299900,124509600,2592700
Financial Corporation NIKoil,2062400,51197600,3134500
OTKRITIE Bank JSC,7456600,170768500,9881600
Russian Standart Bank Group-Russia Standart Bank JSC,38924000,379421000,4881000
ING Bank (Eurasia) ZAO,115758820,252465750,114312890
Troika Dialog Group,0,139526756,31510032
Nordea Bank JSC,150498000,277189000,23041000
Gazenergoprombank,172200,95383500,0
International Industrial Bank-Mezhdunarodny Promyshlenny Bank,15341100,133769500,4524200
"Public Joint Stock Company ""Bank UralSib""",41112600,393349000,2110600
OJSC Rost Bank,3698273,67979973,6917736
Sviaz-Bank OAO-International Bank for Settlements of the Telecommunications and Postal Services,28177000,343104000,9491000
Bank Societe Generale Vostok,68985200,106327100,1835600
Inkombank-Joint Stock Bank,2531120,12115504,2648512
Bank Petrocommerce,8768400,221936500,8680000
Mosckovsky Oblastnoy Bank,1077176,60276697,1795059
Bank Jugra,1461303,51418672,4938116
Agency for Housing Mortage Lending Joint Stock Company,0,323978900,43536300
Ural Bank for Reconstruction & Development,40740000,202488500,8395400
VTB Leasing,159769000,232026000,7516000
Bank Zenit PJSC,32932100,299856100,17800000
Novikombank Jscb,20543600,168928600,37186100
Absolut Bank,14016000,129557000,6398000
Rossiysky Capital Bank (The),13169564,113527000,9253522
United Export Imort Bank - UNEXIMBANK,1217400,13420500,4759500
Mdm Bank Public Joint Stock Company,39620000,267699000,16386000
Home Credit and Finance Bank,14067000,358934000,13108000
Globexbank-Commercial Bank Globex,62039900,279226600,23141400
Agroprombank - Joint Stock Commercial Agroindustrial Bank,613100,1580300,183900
Joint Stock Commercial Bank Moscow Industrial Bank,30378700,207998500,454400
Probusiness Bank OAO,12048200,178667300,14574800
Vneshprombank Ltd-Foreign Economic Industrial Bank LLC,4575886,167045820,45108387
"CJSC ""Sberbank Leasing""",37733000,39099200,0
Vozrozhdeniye Bank PJSC ,8996000,211006000,644000
Conversbank Ltd,6116300,31058000,3900000
Rossiysky Kredit Bank-Russia Credit,10812846,32781293,14039258
Joint Stock Bank 'Transcapitalbank',20350400,140887000,210200
KIT Finance Investment Bank OAO,10980400,115187200,13457900
Peresvet Bank,20875226,101711540,10441472
PJSC State Transport Leasing Company,994300,82217200,2994300
"Open Joint-Stock Company ""MTS Bank""",50161600,223742200,34612900
PJSC Tatfondbank,12415900,122203700,8745400
Russia Regional Development Bank-Vserossiysky Bank Razvitiya Regionov,1035000,107695500,7764100
Orient Express Bank AO,11859700,228338400,4715200
Investment Trade Bank JSCB-Investtradebank,17298500,113513800,6618500
BCS Holding International Ltd,10215500,36977800,16454600
Joint-Stock Bank 'Master-Bank',4513363,66578553,12540268
The joint-stock Bank 'ROSEVROBANK',5772700,127123400,8379300
Deutche Bank LLC,65844669,169183040,104339780
ZAO AKB 'Express-Volga',10374,42117768,25328460
Russian Bank for Small and Medium Enterprises Support OJSC-SME,64547100,110795700,81253800
National Bank Trust OAO,20885000,140091000,2613000
DeltaCredit Bank,9416200,100724400,3179400
Rosagroleasing JSC,6904100,72780600,0
Investbank PJSC,5957256,41121012,2942838
Commercial Bank Sudostroitelny Bank,7592900,44730400,7118400
Asian-Pacific Bank,13804500,118556300,3436300
Tinkoff Credit Systems Bank ZAO-TCS Bank,1687887,106269310,27644051
Aziatsko-Tihookeanskiy Bank,9189197,114641520,8214500
Tinkoff Bank,0,98565000,15241400
Joint Stock Bank Avangard,15461600,104737500,13538900
National Settlement Depository,73095900,86438900,1222900
Open joint-stock company 'Rosgosstrakh Bank',5210600,118785900,16888100
Nota-Bank Open Joint-Stock Company,4197000,75753200,6377700
OTP Bank JSC,8601900,143720300,8729000
Credit Europe Bank Ltd,33354300,152121400,2251000
"Open Joint Stock Company Joint Stock Commercial Bank ""International Financial Club""",4083400,53082500,28800
SKB-Bank-Joint-Stock Commercial Bank of Support to Commerce and Business,944600,117866200,3325700
CB Renaissance Credit OOO,3029623,108706840,8814738
FundServiceBank OJSC,567774,65153917,13402440
BNP Paribas ZAO,17696694,102021540,29039007
baltiyskiu Bank,8342553,91511530,3847572
NIKoil IBG Bank,4568000,24609500,1648400
CentroCredit Bank ZAO,33436023,79334146,4352489
Surgutneftegasbank JSC,1238385,58053897,13793861
West Siberian Commercial Bank PJSC-Zapsibcombank,308700,94294900,1223200
AMT Bank,8752700,34652900,1676300
Closed joint stock company LOCKO-Bank,21756500,79699300,4781600
Avtobank-Nikoil,2370000,15418400,2254000
Cetelem Bank LLC,15013335,61804259,1360475
Commercial Bank 'INTERCOMMERZ' Limited,611700,45273900,6980900
Baltic Financial Agency Bank Opened-Joint Stock Company-BFA Bank,29995974,89279796,7122879
Narodniy Credit Bank,693761,26450353,3721700
Trust Investment Bank,10070600,28346600,2813200
Bank Center-Invest,520000,75947200,1100300
Tokobank Commercial Joint Stock Bank,829423,3150333,631165
Rusfinance Bank OOO,13481061,105550480,4144112
Rosinterbank CJSC,3904900,43493200,5191500
National Trade Bank,4335397,26291600,955516
"Saint-Petersburg Commercial Bank ""Tavrichesky"" OAO-Bank Tavricheskiy",2973349,46460266,4055156
Perviy Respublikansky Bank,2679600,31565600,1453500
Bank SOYUZ,10588000,82314000,2430000
HSBC Bank (RR) LLC-OOO HSBC Bank (RR),9791219,59559315,29080975
Baltinvestbank-Baltic Investment Bank,9490859,65158448,2149815
Credit Agricole Corporate and Investment Bank' Closed Joint Stock Company,1665100,50045200,4564200
Most-Bank Commercial Bank,1542132,3494500,565734
Uniastrum Bank,207304,64650766,5578890
"ZAO Moscow Commercial Bank ""Moscomprivatbank""",1600679,51301437,17253652
Metalinvestbank-Metallurgical Investment Bank (OJSC),14126200,65774900,12927400
Bank Finservice JSC,5014223,29300267,9688667
Russian National Commercial Bank - RNCB OAO,0,1909867,337084
Smolensky Bank,1542104,12832816,1469178
Expobank LLC,11102400,48018000,3595000
Industrial an Commercial Bank of China (Moscow) ZAO,11623069,24046666,16827376
Banca Inteza ZAO,16951500,67087600,5030100
Joint Stock Commercial Bank Defense Industrial Bank,1765800,26193300,3108300
Open Joint-Stock Company 'Joint-Stock Bank 'Pushkino',788208,5706234,661112
Mezhcombank,586000,3461500,264700
Open Joint-Stock Company Bank Zapadny ,2841025,14942013,1351268
Kuban Kredit OOO,136644,56321013,8573630
GE Money Bank,2579814,27251542,923220
Rosenergobank Commercial Bank,1820100,30795200,3925500
International Investment Bank OJSC,2328188,18556567,5012835
Commercial Bank 'Obrazovanie' ZAO,4534634,31830575,4931895
BFG-Credit,1685372,32300030,3187098
URALSIB-YUG Bank,360500,18974500,812200
Limited Liability Company Medical Commercial Bank 'Avers',7185900,38243200,8262900
Mail Bank,16105765,31394503,1726713
Dalcombank,249660,18928488,2697654
Bank ROST,480755,3643484,857887
Bank of Tokyo-Mitsubishi UFJ (Eurasia) ZAO,21108900,46011100,3533800
Project Financing Bank-Bank Proektnogo Finansitovaniya - BPF,3733198,15550619,819915
Mosstoieconombank ZAO,3400756,20087631,4649410
Metallurgical Commercial Bank' Joint Stock Company - 'Metcombank' JSC,0,47558597,4286936
Commerzbank (Eurasia),10166118,43806071,20571456
International Bank of St Petersburg PJSC,8380203,52390262,7320750
Finprombank-Financial and Industrial Bank,6573718,30892875,4657188
Commercial Bank National Standart,13392100,60616300,1851700
"JSC Krayinvestbank-Joint Stock Company ""Krasnodar Regional Investment Bank:",2573200,31790900,2559900
Commercial Bank Moscow Capital Ltd,1630857,14827262,2352539
Bank Credit Suisse (Moscow),20065394,34874995,4190676
Interprombank AKB,1762000,28538400,3690400
"The Bank ""IBA-Moscow"" Limited Liability Company",12868100,33435300,3588400
Unicombank - Universal Commercial Joint Stock Bank,66879,897547,114254
BCS - Investment Bank,5548546,22426571,6912958
Mezhtopenergobank AOA,1965400,46691200,3038500